{
  "timestamp": "2025-12-09T18:40:40.574Z",
  "summary": {
    "totalTests": 27,
    "totalPassed": 21,
    "totalFailed": 4,
    "totalWarned": 2,
    "successRate": "77.78%",
    "duration": 51421
  },
  "phases": [
    {
      "phase": "FASE 1: Infraestrutura",
      "passed": 5,
      "failed": 0,
      "warned": 1,
      "total": 6,
      "duration": 3509
    },
    {
      "phase": "FASE 2: CRUD de Usuários",
      "passed": 6,
      "failed": 1,
      "warned": 0,
      "total": 7,
      "duration": 18303
    },
    {
      "phase": "FASE 3: Autenticação",
      "passed": 5,
      "failed": 0,
      "warned": 1,
      "total": 6,
      "duration": 7769
    },
    {
      "phase": "FASE 4: Roles e Permissions",
      "passed": 5,
      "failed": 3,
      "warned": 0,
      "total": 8,
      "duration": 21839
    }
  ],
  "failures": [
    {
      "phase": "CRUD",
      "test": "Criar Usuário com PermissionIds",
      "message": "Erro: Request failed with status code 404"
    },
    {
      "phase": "Permissions",
      "test": "Atribuir Permissão Direta",
      "message": "Erro: Request failed with status code 404"
    },
    {
      "phase": "Permissions",
      "test": "Remover Permissão Direta",
      "message": "Teste pulado: usuário ou permission não disponível"
    },
    {
      "phase": "Permissions",
      "test": "Sincronizar Permissões",
      "message": "Erro: Request failed with status code 404"
    }
  ],
  "allResults": [
    {
      "phase": "FASE 1: Infraestrutura",
      "results": [
        {
          "test": "Existência de Tabelas",
          "status": "PASS",
          "message": "Todas as 6 tabelas necessárias existem",
          "data": [
            "model_has_permissions",
            "model_has_roles",
            "permissions",
            "role_has_permissions",
            "roles",
            "usuarios"
          ]
        },
        {
          "test": "Constraint da Coluna Role",
          "status": "WARN",
          "message": "Constraint existe mas não foi possível extrair valores",
          "data": {
            "conname": "usuarios_role_check",
            "constraint_def": "CHECK (((role)::text = ANY (ARRAY[('admin'::character varying)::text, ('consultor'::character varying)::text, ('gerente'::character varying)::text, ('vendedor'::character varying)::text])))"
          }
        },
        {
          "test": "Índices de Performance",
          "status": "PASS",
          "message": "2 índices encontrados",
          "data": [
            {
              "tablename": "model_has_permissions",
              "indexname": "model_has_permissions_model_id_model_type_index"
            },
            {
              "tablename": "model_has_roles",
              "indexname": "model_has_roles_model_id_model_type_index"
            }
          ]
        },
        {
          "test": "Roles Cadastradas",
          "status": "PASS",
          "message": "9 roles encontradas no sistema",
          "data": [
            {
              "id": 1,
              "name": "super_admin",
              "guard_name": "api"
            },
            {
              "id": 2,
              "name": "admin",
              "guard_name": "api"
            },
            {
              "id": 3,
              "name": "cativo",
              "guard_name": "api"
            },
            {
              "id": 4,
              "name": "corretor",
              "guard_name": "api"
            },
            {
              "id": 5,
              "name": "associado",
              "guard_name": "api"
            },
            {
              "id": 6,
              "name": "proprietario",
              "guard_name": "api"
            },
            {
              "id": 7,
              "name": "gerente",
              "guard_name": "api"
            },
            {
              "id": 8,
              "name": "vendedor",
              "guard_name": "api"
            },
            {
              "id": 9,
              "name": "consultor",
              "guard_name": "api"
            }
          ]
        },
        {
          "test": "Permissions Cadastradas",
          "status": "PASS",
          "message": "126 permissions encontradas (94 modernas)",
          "data": {
            "total": 126,
            "modern": 94,
            "sample": [
              {
                "id": 1,
                "name": "PainelGeral"
              },
              {
                "id": 2,
                "name": "PainelGeralOrganizacoes"
              },
              {
                "id": 3,
                "name": "PainelGeralCativos"
              },
              {
                "id": 4,
                "name": "PainelGeralClube"
              },
              {
                "id": 5,
                "name": "MonitoramentoOrganizacoes"
              },
              {
                "id": 6,
                "name": "Monitoramento"
              },
              {
                "id": 7,
                "name": "NET"
              },
              {
                "id": 8,
                "name": "CRM"
              },
              {
                "id": 9,
                "name": "Oportunidades"
              },
              {
                "id": 10,
                "name": "Usuarios"
              }
            ]
          }
        },
        {
          "test": "Relacionamento Roles-Permissions",
          "status": "PASS",
          "message": "6 roles têm permissions associadas",
          "data": {
            "rolesWithPermissions": 6
          }
        }
      ]
    },
    {
      "phase": "FASE 2: CRUD de Usuários",
      "results": [
        {
          "test": "Criar Usuário Simples",
          "status": "PASS",
          "message": "Usuário criado com sucesso. ID: xz031t5pjlpb34miuy4p3a6l4d",
          "data": {
            "userId": "xz031t5pjlpb34miuy4p3a6l4d",
            "email": "teste.simples.1765305595076@teste.com",
            "role": []
          }
        },
        {
          "test": "Criar Usuário com RoleId",
          "status": "PASS",
          "message": "Usuário criado com roleId 2",
          "data": {
            "userId": "cm384gifol386xdleghbxam80b",
            "roleId": 2,
            "roleName": "admin"
          }
        },
        {
          "test": "Criar Usuário com PermissionIds",
          "status": "FAIL",
          "message": "Erro: Request failed with status code 404",
          "data": {
            "success": false,
            "error": {
              "code": "NOT_FOUND",
              "message": "Usuário não encontrado"
            },
            "meta": {
              "timestamp": "2025-12-09T18:40:03.808Z",
              "requestId": "6d8214f4-aa5b-4a10-a7f1-2f5b27d939b2"
            }
          }
        },
        {
          "test": "Listar Usuários",
          "status": "PASS",
          "message": "Listagem retornou 10 usuários",
          "data": {
            "total": 40,
            "returned": 10,
            "page": 1,
            "totalPages": 4
          }
        },
        {
          "test": "Buscar Usuário por ID",
          "status": "PASS",
          "message": "Usuário encontrado: Usuário Teste Simples",
          "data": {
            "id": "xz031t5pjlpb34miuy4p3a6l4d",
            "nome": "Usuário Teste Simples",
            "email": "teste.simples.1765305595076@teste.com"
          }
        },
        {
          "test": "Atualizar Usuário",
          "status": "PASS",
          "message": "Usuário atualizado com sucesso",
          "data": {
            "id": "xz031t5pjlpb34miuy4p3a6l4d",
            "nome": "Usuário Teste ATUALIZADO",
            "telefone": "11966666666"
          }
        },
        {
          "test": "Deletar Usuário",
          "status": "PASS",
          "message": "Usuário deletado com sucesso (soft delete)"
        }
      ]
    },
    {
      "phase": "FASE 3: Autenticação",
      "results": [
        {
          "test": "Login com Credenciais Válidas",
          "status": "PASS",
          "message": "Login realizado com sucesso, tokens recebidos",
          "data": {
            "hasAccessToken": true,
            "hasRefreshToken": true,
            "tokenType": "Bearer",
            "expiresIn": 3600,
            "user": "admin@email.com"
          }
        },
        {
          "test": "Login com Credenciais Inválidas",
          "status": "PASS",
          "message": "Login rejeitado corretamente (401/400)",
          "data": {
            "status": 401
          }
        },
        {
          "test": "Payload do JWT",
          "status": "PASS",
          "message": "Token contém todos os campos necessários",
          "data": {
            "sub": "k6g72ojagrl415bsak6y68qi96",
            "email": "admin@email.com",
            "nome": "Admin",
            "role": "super_admin",
            "permissions": 22,
            "exp": 1765309212,
            "iat": 1765305612
          }
        },
        {
          "test": "Refresh Token",
          "status": "PASS",
          "message": "Tokens renovados com sucesso",
          "data": {
            "hasNewAccessToken": true,
            "hasNewRefreshToken": true,
            "tokensAreDifferent": true
          }
        },
        {
          "test": "Rota Protegida com Token Válido",
          "status": "WARN",
          "message": "Endpoint /auth/me pode não existir ou retornou formato inesperado",
          "data": {
            "success": true,
            "data": {
              "id": "k6g72ojagrl415bsak6y68qi96",
              "status": "Ativo",
              "concessionaria_atual_id": null,
              "organizacao_atual": null,
              "nome": "Admin",
              "email": "admin@email.com",
              "telefone": null,
              "instagram": null,
              "cpf_cnpj": null,
              "cidade": null,
              "estado": null,
              "endereco": null,
              "cep": null,
              "manager_id": null,
              "avatar_url": null,
              "all_permissions": [
                {
                  "id": 14,
                  "name": "Arquivos",
                  "guard_name": "api",
                  "source": "role"
                },
                {
                  "id": 19,
                  "name": "CadastroConcessionarias",
                  "guard_name": "api",
                  "source": "role"
                },
                {
                  "id": 16,
                  "name": "CadastroOrganizacoes",
                  "guard_name": "api",
                  "source": "role"
                },
                {
                  "id": 15,
                  "name": "Cadastros",
                  "guard_name": "api",
                  "source": "role"
                },
                {
                  "id": 18,
                  "name": "CadastroUnidadesConsumidoras",
                  "guard_name": "api",
                  "source": "role"
                },
                {
                  "id": 17,
                  "name": "CadastroUsuarios",
                  "guard_name": "api",
                  "source": "role"
                },
                {
                  "id": 13,
                  "name": "Configuracoes",
                  "guard_name": "api",
                  "source": "role"
                },
                {
                  "id": 8,
                  "name": "CRM",
                  "guard_name": "api",
                  "source": "role"
                },
                {
                  "id": 20,
                  "name": "FinanceiroAdmin",
                  "guard_name": "api",
                  "source": "role"
                },
                {
                  "id": 6,
                  "name": "Monitoramento",
                  "guard_name": "api",
                  "source": "role"
                },
                {
                  "id": 5,
                  "name": "MonitoramentoOrganizacoes",
                  "guard_name": "api",
                  "source": "role"
                },
                {
                  "id": 7,
                  "name": "NET",
                  "guard_name": "api",
                  "source": "role"
                },
                {
                  "id": 9,
                  "name": "Oportunidades",
                  "guard_name": "api",
                  "source": "role"
                },
                {
                  "id": 11,
                  "name": "Organizacoes",
                  "guard_name": "api",
                  "source": "role"
                },
                {
                  "id": 1,
                  "name": "PainelGeral",
                  "guard_name": "api",
                  "source": "role"
                },
                {
                  "id": 3,
                  "name": "PainelGeralCativos",
                  "guard_name": "api",
                  "source": "role"
                },
                {
                  "id": 4,
                  "name": "PainelGeralClube",
                  "guard_name": "api",
                  "source": "role"
                },
                {
                  "id": 2,
                  "name": "PainelGeralOrganizacoes",
                  "guard_name": "api",
                  "source": "role"
                },
                {
                  "id": 22,
                  "name": "Reclamacoes",
                  "guard_name": "api",
                  "source": "role"
                },
                {
                  "id": 21,
                  "name": "SuperAdmin",
                  "guard_name": "api",
                  "source": "role"
                },
                {
                  "id": 12,
                  "name": "UnidadesConsumidoras",
                  "guard_name": "api",
                  "source": "role"
                },
                {
                  "id": 10,
                  "name": "Usuarios",
                  "guard_name": "api",
                  "source": "role"
                }
              ],
              "roles": [
                "super_admin"
              ],
              "role_details": {
                "id": 1,
                "name": "super_admin",
                "guard_name": "api"
              },
              "created_at": null,
              "updated_at": "2025-12-08T20:24:29.000Z"
            },
            "meta": {
              "timestamp": "2025-12-09T18:40:17.750Z",
              "requestId": "72001977-e55d-44cc-b775-b8deef6137e3"
            }
          }
        },
        {
          "test": "Rota Protegida sem Token",
          "status": "PASS",
          "message": "Acesso bloqueado corretamente (401 Unauthorized)",
          "data": {
            "status": 401
          }
        }
      ]
    },
    {
      "phase": "FASE 4: Roles e Permissions",
      "results": [
        {
          "test": "Atribuir Role",
          "status": "PASS",
          "message": "Role \"admin\" atribuída com sucesso",
          "data": {
            "roleId": 2,
            "roleName": "admin"
          }
        },
        {
          "test": "Atribuir Permissão Direta",
          "status": "FAIL",
          "message": "Erro: Request failed with status code 404",
          "data": {
            "success": false,
            "error": {
              "code": "NOT_FOUND",
              "message": "Usuário não encontrado"
            },
            "meta": {
              "timestamp": "2025-12-09T18:40:28.056Z",
              "requestId": "74dde3c0-ab99-44e2-8850-7f28e31bfcb1"
            }
          }
        },
        {
          "test": "Remover Permissão Direta",
          "status": "FAIL",
          "message": "Teste pulado: usuário ou permission não disponível"
        },
        {
          "test": "Sincronizar Permissões",
          "status": "FAIL",
          "message": "Erro: Request failed with status code 404",
          "data": {
            "success": false,
            "error": {
              "code": "NOT_FOUND",
              "message": "Usuário não encontrado"
            },
            "meta": {
              "timestamp": "2025-12-09T18:40:29.201Z",
              "requestId": "b0834e81-6245-4e84-b629-294eebc31c5a"
            }
          }
        },
        {
          "test": "Buscar Permissões do Usuário",
          "status": "PASS",
          "message": "Permissões obtidas com sucesso",
          "data": {
            "hasRole": true,
            "roleName": "admin",
            "totalPermissions": 14,
            "permissionNames": [
              "Arquivos",
              "Cadastros",
              "CadastroUnidadesConsumidoras",
              "CadastroUsuarios",
              "Configuracoes"
            ]
          }
        },
        {
          "test": "Verificar Permissão Específica",
          "status": "PASS",
          "message": "Verificação funcionando corretamente",
          "data": {
            "permission": "Arquivos",
            "hasPermission": true
          }
        },
        {
          "test": "Verificar Múltiplas Permissões",
          "status": "PASS",
          "message": "Verificação de múltiplas permissions funcionando",
          "data": {
            "permissions": [
              "Arquivos",
              "Cadastros"
            ],
            "hasPermissions": true,
            "details": {
              "Arquivos": true,
              "Cadastros": true
            }
          }
        },
        {
          "test": "Categorização de Permissões",
          "status": "PASS",
          "message": "Permissions categorizadas em 1 categorias",
          "data": {
            "categories": [
              "Outros"
            ],
            "sample": [
              "Outros"
            ]
          }
        }
      ]
    }
  ]
}